SoC_litex/ejercicios/ejm07-i2c-verilog/i2c_verilog/simulation/i2c_TB.vcd
$date
	Sun Jul 14 19:28:17 2019
$end
$version
	Icarus Verilog
$end
$timescale
	10ps
$end
$scope module i2c_TB $end
$scope module uut $end
$var wire 1 ! I2C_clk $end
$var wire 1 " I2C_rst $end
$var wire 8 # command [7:0] $end
$var wire 8 $ control [7:0] $end
$var wire 8 % prescale [7:0] $end
$var wire 1 & scl_pad_i $end
$var wire 1 ' scl_pad_o $end
$var wire 1 ( sda_pad_i $end
$var wire 1 ) sda_pad_o $end
$var wire 8 * transmit [7:0] $end
$var wire 1 + wr $end
$var wire 1 , sto $end
$var wire 8 - status [7:0] $end
$var wire 1 . sta $end
$var wire 1 / sda_padoen_o $end
$var wire 1 0 sda $end
$var wire 1 1 scl_padoen_o $end
$var wire 1 2 scl $end
$var wire 8 3 receive [7:0] $end
$var wire 1 4 rd $end
$var wire 1 5 irxack $end
$var wire 1 6 ien $end
$var wire 1 7 iack $end
$var wire 1 8 i2c_busy $end
$var wire 1 9 i2c_al $end
$var wire 1 : done $end
$var wire 1 ; core_en $end
$var wire 1 < ack $end
$var reg 1 = I2C_intrp $end
$var reg 1 > al $end
$var reg 8 ? cr [7:0] $end
$var reg 8 @ ctr [7:0] $end
$var reg 1 A irq_flag $end
$var reg 16 B prer [15:0] $end
$var reg 1 C rxack $end
$var reg 1 D tip $end
$var reg 8 E txr [7:0] $end
$scope module byte_controller $end
$var wire 1 < ack_in $end
$var wire 1 ! clk $end
$var wire 16 F clk_cnt [15:0] $end
$var wire 1 G cnt_done $end
$var wire 8 H din [7:0] $end
$var wire 8 I dout [7:0] $end
$var wire 1 ; ena $end
$var wire 1 J go $end
$var wire 1 4 read $end
$var wire 1 " rst $end
$var wire 1 & scl_i $end
$var wire 1 ' scl_o $end
$var wire 1 ( sda_i $end
$var wire 1 ) sda_o $end
$var wire 1 . start $end
$var wire 1 , stop $end
$var wire 1 + write $end
$var wire 1 / sda_oen $end
$var wire 1 1 scl_oen $end
$var wire 1 8 i2c_busy $end
$var wire 1 9 i2c_al $end
$var wire 1 K core_rxd $end
$var wire 1 L core_ack $end
$var reg 1 5 ack_out $end
$var reg 5 M c_state [4:0] $end
$var reg 1 : cmd_ack $end
$var reg 4 N core_cmd [3:0] $end
$var reg 1 O core_txd $end
$var reg 3 P dcnt [2:0] $end
$var reg 1 Q ld $end
$var reg 1 R shift $end
$var reg 8 S sr [7:0] $end
$scope module bit_controller $end
$var wire 1 ! clk $end
$var wire 16 T clk_cnt [15:0] $end
$var wire 4 U cmd [3:0] $end
$var wire 1 O din $end
$var wire 1 ; ena $end
$var wire 1 " rst $end
$var wire 1 & scl_i $end
$var wire 1 ' scl_o $end
$var wire 1 V scl_sync $end
$var wire 1 ( sda_i $end
$var wire 1 ) sda_o $end
$var reg 1 9 al $end
$var reg 1 8 busy $end
$var reg 2 W cSCL [1:0] $end
$var reg 2 X cSDA [1:0] $end
$var reg 18 Y c_state [17:0] $end
$var reg 1 Z clk_en $end
$var reg 1 L cmd_ack $end
$var reg 1 [ cmd_stop $end
$var reg 16 \ cnt [15:0] $end
$var reg 1 ] dSCL $end
$var reg 1 ^ dSDA $end
$var reg 1 K dout $end
$var reg 1 _ dscl_oen $end
$var reg 3 ` fSCL [2:0] $end
$var reg 3 a fSDA [2:0] $end
$var reg 14 b filter_cnt [13:0] $end
$var reg 1 c sSCL $end
$var reg 1 d sSDA $end
$var reg 1 1 scl_oen $end
$var reg 1 e sda_chk $end
$var reg 1 / sda_oen $end
$var reg 1 f slave_wait $end
$var reg 1 g sta_condition $end
$var reg 1 h sto_condition $end
$upscope $end
$upscope $end
$upscope $end
$upscope $end
$enddefinitions $end
#0
$dumpvars
xh
xg
xf
xe
xd
xc
b0 b
b111 a
b111 `
x_
x^
x]
bx \
x[
xZ
bx Y
bx X
bx W
xV
bx U
bx T
bx S
xR
xQ
bx P
xO
bx N
bx M
xL
xK
xJ
bx I
bx H
xG
bx F
bx E
xD
xC
bx B
xA
bx @
bx ?
x>
x=
x<
x;
x:
x9
x8
x7
x6
x5
x4
bx 3
x2
x1
x0
x/
x.
bx000xx -
x,
x+
bx *
0)
x(
0'
x&
bx %
bx $
bx #
1"
1!
$end
#100
0V
0J
z(
z0
z&
z2
1G
0;
06
0.
0,
04
0+
0<
07
1Z
b0 X
b0 W
1^
1]
1d
1c
0h
0g
08
0[
09
0e
1/
11
0L
b0 Y
b0 3
b0 I
b0 S
b0 P
05
b0 M
0:
0Q
0R
0O
b0 N
b0 U
b0 E
b0 H
b0 @
b1111111111111111 B
b1111111111111111 F
b1111111111111111 T
b0 ?
0A
0D
0C
b0 -
0>
0=
0!
#200
0f
1!
#300
b1111111111111111 \
1_
0!
#400
1!
#500
0!
#600
1!
#700
0!
#800
1!
#900
0!
#1000
xJ
x.
x,
x4
x+
x<
x7
x;
x6
bx ?
bx E
bx H
bx @
b110 a
b110 `
b0z X
b0z W
b10 B
b10 F
b10 T
1!
b10 %
0"
#1100
0!
#1200
1;
06
bz X
bz W
b100 a
b100 `
b10000000 @
1!
b10000000 $
#1300
0Z
b1111111111111110 \
b0x0 -
xD
0!
#1400
1J
1.
0,
04
1+
0<
07
b10010000 ?
b10100010 E
b10100010 H
b0z a
b0z `
1!
b10010000 #
b10100010 *
#1500
1V
0d
0c
b1111111111111101 \
0!
#1600
b0zz a
b0zz `
1!
#1700
0V
1Z
b10 \
0^
0]
1Q
b1 N
b1 U
b1 M
b10 -
1D
0!
#1800
bz a
bz `
1!
#1900
0G
0Q
b111 P
b10100010 3
b10100010 I
b10100010 S
b1 Y
xd
xc
0Z
b1 \
0!
#2000
1!
#2100
xV
b0 \
x^
x]
xh
1O
0!
#2200
1!
#2300
x9
xg
1Z
b10 \
0!
#2400
1!
#2500
0Z
b1 \
x8
b10 Y
xA
b0xx0001x -
x>
0!
#2600
1!
#2700
b0 \
0!
#2800
1!
#2900
1Z
b10 \
0!
#3000
1!
#3100
b100 Y
0Z
b1 \
0!
#3200
1!
#3300
b0 \
0!
#3400
1!
#3500
1Z
b10 \
0!
#3600
1!
#3700
0(
00
0Z
b1 \
0/
b1000 Y
0!
#3800
bz0 X
1!
#3900
b0 \
0!
#4000
b0 X
1!
#4100
1Z
b10 \
0!
#4200
bz0 a
1!
#4300
b10000 Y
0Z
b1 \
0!
#4400
bz00 a
1!
#4500
b0 \
0!
#4600
b0 a
1!
#4700
0d
1Z
b10 \
0!
#4800
1!
#4900
0V
0&
02
0Z
b1 \
0^
0h
01
1L
b0 Y
0!
#5000
bz0 W
1!
#5100
1Q
b100 N
b100 U
b100 M
0L
09
0g
b0 \
0_
0!
#5200
b0 W
1!
#5300
1Z
b10 \
0Q
b0x00001x -
0>
0!
#5400
bz0 `
1!
#5500
b10000000000000 Y
0Z
b1 \
0!
#5600
bz00 `
1!
#5700
b0 \
0!
#5800
b0 `
1!
#5900
0c
1Z
b10 \
0!
#6000
1!
#6100
z(
z0
0Z
b1 \
0]
1/
b100000000000000 Y
0!
#6200
b0z X
1!
#6300
b0 \
0!
#6400
bz X
1!
#6500
1Z
b10 \
0!
#6600
b0z a
1!
#6700
z&
z2
11
b1000000000000000 Y
0Z
b1 \
0!
#6800
1f
b0z W
b0zz a
1!
#6900
1_
b0 \
0!
#7000
bz a
bz W
1!
#7100
xd
1Z
b10 \
0!
#7200
b0z `
1!
#7300
0Z
x^
1e
b10000000000000000 Y
0!
#7400
b0zz `
1!
#7500
x9
0!
#7600
bz `
1!
#7700
xc
b0xx0001x -
x>
0!
#7800
xf
1!
#7900
xV
xh
xg
x]
0!
#8000
1!
#8100
b1 \
0!
#8200
1!
#8300
b0 \
0!
#8400
1!
#8500
1Z
b10 \
0!
#8600
1!
#8700
0V
0&
02
0e
01
1L
b0 Y
0Z
b1 \
0!
#8800
bz0 W
1!
#8900
0_
b0 \
09
0L
1R
0!
#9000
b0 W
1!
#9100
b0x00001x -
0>
0R
b110 P
b100010x 3
b100010x I
b100010x S
1Z
b10 \
0!
#9200
bz0 `
1!
#9300
0Z
b1 \
b10000000000000 Y
0O
0!
#9400
bz00 `
1!
#9500
x9
b0 \
0!
#9600
b0 `
1!
#9700
1Z
b10 \
0c
b0xx0001x -
x>
0!
#9800
1!
#9900
0(
00
0/
b100000000000000 Y
0h
0g
0]
0Z
b1 \
0!
#10000
bz0 X
1!
#10100
b0 \
09
0!
#10200
b0 X
1!
#10300
b0x00001x -
0>
1Z
b10 \
0!
#10400
bz0 a
1!
#10500
z&
z2
0Z
b1 \
11
b1000000000000000 Y
0!
#10600
bz00 a
b0z W
1f
1!
#10700
b0 \
1_
0!
#10800
bz W
b0 a
1!
#10900
1Z
b10 \
0d
0!
#11000
b0z `
1!
#11100
1e
b10000000000000000 Y
0^
0Z
0!
#11200
b0zz `
1!
#11300
0!
#11400
bz `
1!
#11500
xc
0!
#11600
xf
1!
#11700
xV
x]
0!
#11800
1!
#11900
b1 \
0!
#12000
1!
#12100
b0 \
0!
#12200
1!
#12300
1Z
b10 \
0!
#12400
1!
#12500
0V
0&
02
0Z
b1 \
0e
01
1L
b0 Y
0!
#12600
bz0 W
1!
#12700
1R
0L
b0 \
0_
0!
#12800
b0 W
1!
#12900
1Z
b10 \
b100010xx 3
b100010xx I
b100010xx S
b101 P
0R
0!
#13000
bz0 `
1!
#13100
1O
b10000000000000 Y
0Z
b1 \
0!
#13200
bz00 `
1!
#13300
b0 \
0!
#13400
b0 `
1!
#13500
0c
1Z
b10 \
0!
#13600
1!
#13700
z(
z0
0Z
b1 \
0]
1/
b100000000000000 Y
0!
#13800
b0z X
1!
#13900
b0 \
0!
#14000
bz X
1!
#14100
1Z
b10 \
0!
#14200
b0z a
1!
#14300
z&
z2
11
b1000000000000000 Y
0Z
b1 \
0!
#14400
1f
b0z W
b0zz a
1!
#14500
1_
b0 \
0!
#14600
bz a
bz W
1!
#14700
xd
1Z
b10 \
0!
#14800
b0z `
1!
#14900
0Z
x^
1e
b10000000000000000 Y
0!
#15000
b0zz `
1!
#15100
x9
0!
#15200
bz `
1!
#15300
xc
b0xx0001x -
x>
0!
#15400
xf
1!
#15500
xV
xh
xg
x]
0!
#15600
1!
#15700
b1 \
0!
#15800
1!
#15900
b0 \
0!
#16000
1!
#16100
1Z
b10 \
0!
#16200
1!
#16300
0V
0&
02
0e
01
1L
b0 Y
0Z
b1 \
0!
#16400
bz0 W
1!
#16500
0_
b0 \
09
0L
1R
0!
#16600
b0 W
1!
#16700
b0x00001x -
0>
0R
b100 P
b10xxx 3
b10xxx I
b10xxx S
1Z
b10 \
0!
#16800
bz0 `
1!
#16900
0Z
b1 \
b10000000000000 Y
0O
0!
#17000
bz00 `
1!
#17100
x9
b0 \
0!
#17200
b0 `
1!
#17300
1Z
b10 \
0c
b0xx0001x -
x>
0!
#17400
1!
#17500
0(
00
0/
b100000000000000 Y
0h
0g
0]
0Z
b1 \
0!
#17600
bz0 X
1!
#17700
b0 \
09
0!
#17800
b0 X
1!
#17900
b0x00001x -
0>
1Z
b10 \
0!
#18000
bz0 a
1!
#18100
z&
z2
0Z
b1 \
11
b1000000000000000 Y
0!
#18200
bz00 a
b0z W
1f
1!
#18300
b0 \
1_
0!
#18400
bz W
b0 a
1!
#18500
1Z
b10 \
0d
0!
#18600
b0z `
1!
#18700
1e
b10000000000000000 Y
0^
0Z
0!
#18800
b0zz `
1!
#18900
0!
#19000
bz `
1!
#19100
xc
0!
#19200
xf
1!
#19300
xV
x]
0!
#19400
1!
#19500
b1 \
0!
#19600
1!
#19700
b0 \
0!
#19800
1!
#19900
1Z
b10 \
0!
#20000
1!
#20100
0V
0&
02
0Z
b1 \
0e
01
1L
b0 Y
0!
#20200
bz0 W
1!
#20300
1R
0L
b0 \
0_
0!
#20400
b0 W
1!
#20500
1Z
b10 \
b10xxxx 3
b10xxxx I
b10xxxx S
b11 P
0R
0!
#20600
bz0 `
1!
#20700
b10000000000000 Y
0Z
b1 \
0!
#20800
bz00 `
1!
#20900
b0 \
0!
#21000
b0 `
1!
#21100
0c
1Z
b10 \
0!
#21200
1!
#21300
0Z
b1 \
0]
b100000000000000 Y
0!
#21400
1!
#21500
b0 \
0!
#21600
1!
#21700
1Z
b10 \
0!
#21800
1!
#21900
z&
z2
11
b1000000000000000 Y
0Z
b1 \
0!
#22000
1f
b0z W
1!
#22100
1_
b0 \
0!
#22200
bz W
1!
#22300
1Z
b10 \
0!
#22400
b0z `
1!
#22500
0Z
1e
b10000000000000000 Y
0!
#22600
b0zz `
1!
#22700
0!
#22800
bz `
1!
#22900
xc
0!
#23000
xf
1!
#23100
xV
x]
0!
#23200
1!
#23300
b1 \
0!
#23400
1!
#23500
b0 \
0!
#23600
1!
#23700
1Z
b10 \
0!
#23800
1!
#23900
0V
0&
02
0e
01
1L
b0 Y
0Z
b1 \
0!
#24000
bz0 W
1!
#24100
0_
b0 \
0L
1R
0!
#24200
b0 W
1!
#24300
0R
b10 P
b10xxxxx 3
b10xxxxx I
b10xxxxx S
1Z
b10 \
0!
#24400
bz0 `
1!
#24500
0Z
b1 \
b10000000000000 Y
0!
#24600
bz00 `
1!
#24700
b0 \
0!
#24800
b0 `
1!
#24900
1Z
b10 \
0c
0!
#25000
1!
#25100
b100000000000000 Y
0]
0Z
b1 \
0!
#25200
1!
#25300
b0 \
0!
#25400
1!
#25500
1Z
b10 \
0!
#25600
1!
#25700
z&
z2
0Z
b1 \
11
b1000000000000000 Y
0!
#25800
b0z W
1f
1!
#25900
b0 \
1_
0!
#26000
bz W
1!
#26100
1Z
b10 \
0!
#26200
b0z `
1!
#26300
1e
b10000000000000000 Y
0Z
0!
#26400
b0zz `
1!
#26500
0!
#26600
bz `
1!
#26700
xc
0!
#26800
xf
1!
#26900
xV
x]
0!
#27000
1!
#27100
b1 \
0!
#27200
1!
#27300
b0 \
0!
#27400
1!
#27500
1Z
b10 \
0!
#27600
1!
#27700
0V
0&
02
0Z
b1 \
0e
01
1L
b0 Y
0!
#27800
bz0 W
1!
#27900
1R
0L
b0 \
0_
0!
#28000
b0 W
1!
#28100
1Z
b10 \
b10xxxxxx 3
b10xxxxxx I
b10xxxxxx S
b1 P
0R
0!
#28200
bz0 `
1!
#28300
1O
b10000000000000 Y
0Z
b1 \
0!
#28400
bz00 `
1!
#28500
b0 \
0!
#28600
b0 `
1!
#28700
0c
1Z
b10 \
0!
#28800
1!
#28900
z(
z0
0Z
b1 \
0]
1/
b100000000000000 Y
0!
#29000
b0z X
1!
#29100
b0 \
0!
#29200
bz X
1!
#29300
1Z
b10 \
0!
#29400
b0z a
1!
#29500
z&
z2
11
b1000000000000000 Y
0Z
b1 \
0!
#29600
1f
b0z W
b0zz a
1!
#29700
1_
b0 \
0!
#29800
bz a
bz W
1!
#29900
xd
1Z
b10 \
0!
#30000
b0z `
1!
#30100
0Z
x^
1e
b10000000000000000 Y
0!
#30200
b0zz `
1!
#30300
x9
0!
#30400
bz `
1!
#30500
xc
b0xx0001x -
x>
0!
#30600
xf
1!
#30700
xV
xh
xg
x]
0!
#30800
1!
#30900
b1 \
0!
#31000
1!
#31100
b0 \
0!
#31200
1!
#31300
1Z
b10 \
0!
#31400
1!
#31500
0V
0&
02
0e
01
1L
b0 Y
0Z
b1 \
0!
#31600
bz0 W
1!
#31700
0_
b0 \
09
0L
1R
0!
#31800
b0 W
1!
#31900
1G
b0x00001x -
0>
0R
b0 P
b0xxxxxxx 3
b0xxxxxxx I
b0xxxxxxx S
1Z
b10 \
0!
#32000
bz0 `
1!
#32100
0Z
b1 \
b10000000000000 Y
0O
0!
#32200
bz00 `
1!
#32300
x9
b0 \
0!
#32400
b0 `
1!
#32500
1Z
b10 \
0c
b0xx0001x -
x>
0!
#32600
1!
#32700
0(
00
0/
b100000000000000 Y
0h
0g
0]
0Z
b1 \
0!
#32800
bz0 X
1!
#32900
b0 \
09
0!
#33000
b0 X
1!
#33100
b0x00001x -
0>
1Z
b10 \
0!
#33200
bz0 a
1!
#33300
z&
z2
0Z
b1 \
11
b1000000000000000 Y
0!
#33400
bz00 a
b0z W
1f
1!
#33500
b0 \
1_
0!
#33600
bz W
b0 a
1!
#33700
1Z
b10 \
0d
0!
#33800
b0z `
1!
#33900
1e
b10000000000000000 Y
0^
0Z
0!
#34000
b0zz `
1!
#34100
0!
#34200
bz `
1!
#34300
xc
0!
#34400
xf
1!
#34500
xV
x]
0!
#34600
1!
#34700
b1 \
0!
#34800
1!
#34900
b0 \
0!
#35000
1!
#35100
1Z
b10 \
0!
#35200
1!
#35300
0V
0&
02
0Z
b1 \
0e
01
1L
b0 Y
0!
#35400
bz0 W
1!
#35500
b1000 N
b1000 U
b1000 M
0L
b0 \
0_
0!
#35600
b0 W
1!
#35700
1Z
b10 \
0!
#35800
bz0 `
1!
#35900
b1000000000 Y
0Z
b1 \
0!
#36000
bz00 `
1!
#36100
b0 \
0!
#36200
b0 `
1!
#36300
0c
1Z
b10 \
0!
#36400
1!
#36500
z(
z0
0Z
b1 \
0]
1/
b10000000000 Y
0!
#36600
b0z X
1!
#36700
b0 \
0!
#36800
bz X
1!
#36900
1Z
b10 \
0!
#37000
b0z a
1!
#37100
z&
z2
11
b100000000000 Y
0Z
b1 \
0!
#37200
1f
b0z W
b0zz a
1!
#37300
1_
b0 \
0!
#37400
bz a
bz W
1!
#37500
xd
1Z
b10 \
0!
#37600
b0z `
1!
#37700
0Z
x^
b1000000000000 Y
0!
#37800
b0zz `
1!
#37900
0!
#38000
bz `
1!
#38100
xc
0!
#38200
xf
1!
#38300
xV
xh
xg
x]
0!
#38400
1!
#38500
b1 \
x9
0!
#38600
1!
#38700
b0xx0001x -
x>
b0 \
0!
#38800
1!
#38900
1Z
b10 \
0!
#39000
1!
#39100
0V
0&
02
01
1L
b0 Y
0Z
b1 \
0!
#39200
bz0 W
1!
#39300
0J
0_
b0 \
09
0L
1O
x5
1:
b0 N
b0 U
b0 M
0!
#39400
b0 W
1!
#39500
0J
0.
0+
1A
xC
bx000011 -
0>
b0 ?
0:
0O
1Z
b10 \
0!
#39600
1J
1.
1+
bz0 `
b10010000 ?
1!
#39700
0Z
b1 \
bx000001 -
0D
0!
#39800
bz00 `
1!
#39900
bx000011 -
1D
1Q
b1 N
b1 U
b1 M
b0 \
0!
#40000
b0 `
1!
#40100
0G
1Z
b10 \
0c
b10100010 3
b10100010 I
b10100010 S
b111 P
0Q
0!
#40200
1!
#40300
1O
b1 Y
0h
0g
0]
0Z
b1 \
0!
#40400
1!
#40500
b0 \
0!
#40600
1!
#40700
1Z
b10 \
0!
#40800
1!
#40900
0Z
b1 \
b10 Y
0!
#41000
1!
#41100
b0 \
0!
#41200
1!
#41300
1Z
b10 \
0!
#41400
1!
#41500
z&
z2
11
b100 Y
0Z
b1 \
0!
#41600
1f
b0z W
1!
#41700
1_
b0 \
0!
#41800
bz W
1!
#41900
1Z
b10 \
0!
#42000
b0z `
1!
#42100
0(
00
0Z
0/
b1000 Y
0!
#42200
b0zz `
bz0 X
1!
#42300
0!
#42400
b0 X
bz `
1!
#42500
xc
0!
#42600
bz0 a
xf
1!
#42700
xV
xh
xg
x]
0!
#42800
bz00 a
1!
#42900
b1 \
x9
0!
#43000
b0 a
1!
#43100
bx00011 -
x>
0d
b0 \
0!
#43200
1!
#43300
1Z
b10 \
0^
0h
0!
#43400
1!
#43500
b10000 Y
09
0g
0Z
b1 \
0!
#43600
1!
#43700
b0 \
bx000011 -
0>
0!
#43800
1!
#43900
1Z
b10 \
0!
#44000
1!
#44100
0V
0&
02
0Z
b1 \
01
1L
b0 Y
0!
#44200
bz0 W
1!
#44300
1Q
b100 N
b100 U
b100 M
0L
b0 \
0_
0!
#44400
b0 W
1!
#44500
1Z
b10 \
0Q
0!
#44600
bz0 `
1!
#44700
b10000000000000 Y
0Z
b1 \
0!
#44800
bz00 `
1!
#44900
b0 \
0!
#45000
b0 `
1!
#45100
0c
1Z
b10 \
0!
#45200
1!
#45300
z(
z0
0Z
b1 \
0]
1/
b100000000000000 Y
0!
#45400
b0z X
1!
#45500
b0 \
0!
#45600
bz X
1!
#45700
1Z
b10 \
0!
#45800
b0z a
1!
#45900
z&
z2
11
b1000000000000000 Y
0Z
b1 \
0!
#46000
1f
b0z W
b0zz a
1!
#46100
1_
b0 \
0!
#46200
bz a
bz W
1!
#46300
xd
1Z
b10 \
0!
#46400
b0z `
1!
#46500
0Z
x^
1e
b10000000000000000 Y
0!
#46600
b0zz `
1!
#46700
x9
0!
#46800
bz `
1!
#46900
xc
bx00011 -
x>
0!
#47000
xf
1!
#47100
xV
xh
xg
x]
0!
#47200
1!
#47300
b1 \
0!
#47400
1!
#47500
b0 \
0!
#47600
1!
#47700
1Z
b10 \
0!
#47800
1!
#47900
0V
0&
02
0e
01
1L
b0 Y
0Z
b1 \
0!
#48000
bz0 W
1!
#48100
0_
b0 \
09
0L
1R
0!
#48200
b0 W
1!
#48300
bx000011 -
0>
0R
b110 P
b100010x 3
b100010x I
b100010x S
1Z
b10 \
0!
#48400
bz0 `
1!
#48500
0Z
b1 \
b10000000000000 Y
0O
0!
#48600
bz00 `
1!
#48700
x9
b0 \
0!
#48800
b0 `
1!
#48900
1Z
b10 \
0c
bx00011 -
x>
0!
#49000
1!
#49100
0(
00
0/
b100000000000000 Y
0h
0g
0]
0Z
b1 \
0!
#49200
bz0 X
1!
#49300
b0 \
09
0!
#49400
b0 X
1!
#49500
bx000011 -
0>
1Z
b10 \
0!
#49600
bz0 a
1!
#49700
z&
z2
0Z
b1 \
11
b1000000000000000 Y
0!
#49800
bz00 a
b0z W
1f
1!
#49900
b0 \
1_
0!
#50000
bz W
b0 a
1!
#50100
1Z
b10 \
0d
0!
#50200
b0z `
1!
#50300
1e
b10000000000000000 Y
0^
0Z
0!
#50400
b0zz `
1!
#50500
0!
#50600
bz `
1!
#50700
xc
0!
#50800
xf
1!
#50900
xV
x]
0!
#51000
1!
#51100
b1 \
0!
#51200
1!
#51300
b0 \
0!
#51400
1!
#51500
1Z
b10 \
0!
#51600
1!
#51700
0V
0&
02
0Z
b1 \
0e
01
1L
b0 Y
0!
#51800
bz0 W
1!
#51900
1R
0L
b0 \
0_
0!
#52000
b0 W
1!
#52100
1Z
b10 \
b100010xx 3
b100010xx I
b100010xx S
b101 P
0R
0!
#52200
bz0 `
1!
#52300
1O
b10000000000000 Y
0Z
b1 \
0!
#52400
bz00 `
1!
#52500
b0 \
0!
#52600
b0 `
1!
#52700
0c
1Z
b10 \
0!
#52800
1!
#52900
z(
z0
0Z
b1 \
0]
1/
b100000000000000 Y
0!
#53000
b0z X
1!
#53100
b0 \
0!
#53200
bz X
1!
#53300
1Z
b10 \
0!
#53400
b0z a
1!
#53500
z&
z2
11
b1000000000000000 Y
0Z
b1 \
0!
#53600
1f
b0z W
b0zz a
1!
#53700
1_
b0 \
0!
#53800
bz a
bz W
1!
#53900
xd
1Z
b10 \
0!
#54000
b0z `
1!
#54100
0Z
x^
1e
b10000000000000000 Y
0!
#54200
b0zz `
1!
#54300
x9
0!
#54400
bz `
1!
#54500
xc
bx00011 -
x>
0!
#54600
xf
1!
#54700
xV
xh
xg
x]
0!
#54800
1!
#54900
b1 \
0!
#55000
1!
#55100
b0 \
0!
#55200
1!
#55300
1Z
b10 \
0!
#55400
1!
#55500
0V
0&
02
0e
01
1L
b0 Y
0Z
b1 \
0!
#55600
bz0 W
1!
#55700
0_
b0 \
09
0L
1R
0!
#55800
b0 W
1!
#55900
bx000011 -
0>
0R
b100 P
b10xxx 3
b10xxx I
b10xxx S
1Z
b10 \
0!
#56000
bz0 `
1!
#56100
0Z
b1 \
b10000000000000 Y
0O
0!
#56200
bz00 `
1!
#56300
x9
b0 \
0!
#56400
b0 `
1!
#56500
1Z
b10 \
0c
bx00011 -
x>
0!
#56600
1!
#56700
0(
00
0/
b100000000000000 Y
0h
0g
0]
0Z
b1 \
0!
#56800
bz0 X
1!
#56900
b0 \
09
0!
#57000
b0 X
1!
#57100
bx000011 -
0>
1Z
b10 \
0!
#57200
bz0 a
1!
#57300
z&
z2
0Z
b1 \
11
b1000000000000000 Y
0!
#57400
bz00 a
b0z W
1f
1!
#57500
b0 \
1_
0!
#57600
bz W
b0 a
1!
#57700
1Z
b10 \
0d
0!
#57800
b0z `
1!
#57900
1e
b10000000000000000 Y
0^
0Z
0!
#58000
b0zz `
1!
#58100
0!
#58200
bz `
1!
#58300
xc
0!
#58400
xf
1!
#58500
xV
x]
0!
#58600
1!
#58700
b1 \
0!
#58800
1!
#58900
b0 \
0!
#59000
1!
#59100
1Z
b10 \
0!
#59200
1!
#59300
0V
0&
02
0Z
b1 \
0e
01
1L
b0 Y
0!
#59400
bz0 W
1!
#59500
1R
0L
b0 \
0_
0!
#59600
b0 W
1!
#59700
1Z
b10 \
b10xxxx 3
b10xxxx I
b10xxxx S
b11 P
0R
0!
#59800
bz0 `
1!
#59900
b10000000000000 Y
0Z
b1 \
0!
#60000
bz00 `
1!
#60100
b0 \
0!
#60200
b0 `
1!
#60300
0c
1Z
b10 \
0!
#60400
1!
#60500
0Z
b1 \
0]
b100000000000000 Y
0!
#60600
1!
#60700
b0 \
0!
#60800
1!
#60900
1Z
b10 \
0!
#61000
1!
#61100
z&
z2
11
b1000000000000000 Y
0Z
b1 \
0!
#61200
1f
b0z W
1!
#61300
1_
b0 \
0!
#61400
bz W
1!
#61500
1Z
b10 \
0!
#61600
b0z `
1!
#61700
0Z
1e
b10000000000000000 Y
0!
#61800
b0zz `
1!
#61900
0!
#62000
bz `
1!
#62100
xc
0!
#62200
xf
1!
#62300
xV
x]
0!
#62400
1!
#62500
b1 \
0!
#62600
1!
#62700
b0 \
0!
#62800
1!
#62900
1Z
b10 \
0!
#63000
1!
#63100
0V
0&
02
0e
01
1L
b0 Y
0Z
b1 \
0!
#63200
bz0 W
1!
#63300
0_
b0 \
0L
1R
0!
#63400
b0 W
1!
#63500
0R
b10 P
b10xxxxx 3
b10xxxxx I
b10xxxxx S
1Z
b10 \
0!
#63600
bz0 `
1!
#63700
0Z
b1 \
b10000000000000 Y
0!
#63800
bz00 `
1!
#63900
b0 \
0!
#64000
b0 `
1!
#64100
1Z
b10 \
0c
0!
#64200
1!
#64300
b100000000000000 Y
0]
0Z
b1 \
0!
#64400
1!
#64500
b0 \
0!
#64600
1!
#64700
1Z
b10 \
0!
#64800
1!
#64900
z&
z2
0Z
b1 \
11
b1000000000000000 Y
0!
#65000
b0z W
1f
1!
#65100
b0 \
1_
0!
#65200
bz W
1!
#65300
1Z
b10 \
0!
#65400
b0z `
1!
#65500
1e
b10000000000000000 Y
0Z
0!
#65600
b0zz `
1!
#65700
0!
#65800
bz `
1!
#65900
xc
0!
#66000
xf
1!
#66100
xV
x]
0!
#66200
1!
#66300
b1 \
0!
#66400
1!
#66500
b0 \
0!
#66600
1!
#66700
1Z
b10 \
0!
#66800
1!
#66900
0V
0&
02
0Z
b1 \
0e
01
1L
b0 Y
0!
#67000
bz0 W
1!
#67100
1R
0L
b0 \
0_
0!
#67200
b0 W
1!
#67300
1Z
b10 \
b10xxxxxx 3
b10xxxxxx I
b10xxxxxx S
b1 P
0R
0!
#67400
bz0 `
1!
#67500
1O
b10000000000000 Y
0Z
b1 \
0!
#67600
bz00 `
1!
#67700
b0 \
0!
#67800
b0 `
1!
#67900
0c
1Z
b10 \
0!
#68000
1!
#68100
z(
z0
0Z
b1 \
0]
1/
b100000000000000 Y
0!
#68200
b0z X
1!
#68300
b0 \
0!
#68400
bz X
1!
#68500
1Z
b10 \
0!
#68600
b0z a
1!
#68700
z&
z2
11
b1000000000000000 Y
0Z
b1 \
0!
#68800
1f
b0z W
b0zz a
1!
#68900
1_
b0 \
0!
#69000
bz a
bz W
1!
#69100
xd
1Z
b10 \
0!
#69200
b0z `
1!
#69300
0Z
x^
1e
b10000000000000000 Y
0!
#69400
b0zz `
1!
#69500
x9
0!
#69600
bz `
1!
#69700
xc
bx00011 -
x>
0!
#69800
xf
1!
#69900
xV
xh
xg
x]
0!
#70000
1!
#70100
b1 \
0!
#70200
1!
#70300
b0 \
0!
#70400
1!
#70500
1Z
b10 \
0!
#70600
1!
#70700
0V
0&
02
0e
01
1L
b0 Y
0Z
b1 \
0!
#70800
bz0 W
1!
#70900
0_
b0 \
09
0L
1R
0!
#71000
b0 W
1!
#71100
1G
bx000011 -
0>
0R
b0 P
b0xxxxxxx 3
b0xxxxxxx I
b0xxxxxxx S
1Z
b10 \
0!
#71200
bz0 `
1!
#71300
0Z
b1 \
b10000000000000 Y
0O
0!
#71400
bz00 `
1!
#71500
x9
b0 \
0!
#71600
b0 `
1!
#71700
1Z
b10 \
0c
bx00011 -
x>
0!
#71800
1!
#71900
0(
00
0/
b100000000000000 Y
0h
0g
0]
0Z
b1 \
0!
#72000
bz0 X
1!
#72100
b0 \
09
0!
#72200
b0 X
1!
#72300
bx000011 -
0>
1Z
b10 \
0!
#72400
bz0 a
1!
#72500
z&
z2
0Z
b1 \
11
b1000000000000000 Y
0!
#72600
bz00 a
b0z W
1f
1!
#72700
b0 \
1_
0!
#72800
bz W
b0 a
1!
#72900
1Z
b10 \
0d
0!
#73000
b0z `
1!
#73100
1e
b10000000000000000 Y
0^
0Z
0!
#73200
b0zz `
1!
#73300
0!
#73400
bz `
1!
#73500
xc
0!
#73600
xf
1!
#73700
xV
x]
0!
#73800
1!
#73900
b1 \
0!
#74000
1!
#74100
b0 \
0!
#74200
1!
#74300
1Z
b10 \
0!
#74400
1!
#74500
0V
0&
02
0Z
b1 \
0e
01
1L
b0 Y
0!
#74600
bz0 W
1!
#74700
b1000 N
b1000 U
b1000 M
0L
b0 \
0_
0!
#74800
b0 W
1!
#74900
1Z
b10 \
0!
